\begin{tikzpicture}[node distance = 2cm, auto]
	\tikzstyle{every pin edge}=[shorten <=1pt, shorten >=1pt]
	\tikzstyle{pfunc}=[circle, minimum size=2em, text centered, draw]
	\tikzstyle{afunc}=[rectangle, rounded corners, minimum height=1.9em, minimum width=1.9em, draw]
	\tikzstyle{nullneuron}=[]
	\tikzstyle{link}=[draw, ->, shorten >=1pt, shorten <=1pt]

	\node [pfunc] (sum) {$\sum$};
	\node [nullneuron, above left of=sum] (firstpred) {$S_ {i_1}$};
	\node [nullneuron, below left of=sum] (lastpred) {$S_ {i_n}$};
	\node [afunc, right of=sum] (sig) {$f_j()$};

	\path [link, auto=left] (firstpred) edge node {$W_{ji_1}$} (sum);
	\path [link, auto=right] (lastpred) edge node {$W_{ji_n}$} (sum);
	\path[style=dotted] (firstpred) edge (lastpred);

	\path [link] (sum) edge node {$N_j$} (sig);
	\path [link] (sig) edge node {$S_j$} ([xshift=1cm]sig.east);
\end{tikzpicture}
