<?xml version="1.0" encoding="UTF-8" standalone="no"?>
<!-- Created with Inkscape (http://www.inkscape.org/) -->

<svg
   xmlns:dc="http://purl.org/dc/elements/1.1/"
   xmlns:cc="http://creativecommons.org/ns#"
   xmlns:rdf="http://www.w3.org/1999/02/22-rdf-syntax-ns#"
   xmlns:svg="http://www.w3.org/2000/svg"
   xmlns="http://www.w3.org/2000/svg"
   xmlns:sodipodi="http://sodipodi.sourceforge.net/DTD/sodipodi-0.dtd"
   xmlns:inkscape="http://www.inkscape.org/namespaces/inkscape"
   width="2048"
   height="1200"
   id="svg3402"
   sodipodi:version="0.32"
   inkscape:version="0.48.1 "
   version="1.0"
   sodipodi:docname="Logo_univ-orleans.svg"
   inkscape:output_extension="org.inkscape.output.svg.inkscape"
   inkscape:export-filename="D:\These\Ressources\These-Tours\images\Logo_univ-orleans.png"
   inkscape:export-xdpi="90"
   inkscape:export-ydpi="90">
  <defs
     id="defs3404">
    <clipPath
       clipPathUnits="userSpaceOnUse"
       id="clipPath909">
      <path
         d="m 583.691,616.536 35.68,0 0,20.944 -35.68,0 0,-20.944 z"
         id="path911"
         inkscape:connector-curvature="0" />
    </clipPath>
    <clipPath
       clipPathUnits="userSpaceOnUse"
       id="clipPath901">
      <path
         d="m 583.691,616.536 35.68,0 0,20.944 -35.68,0 0,-20.944 z"
         id="path903"
         inkscape:connector-curvature="0" />
    </clipPath>
    <inkscape:perspective
       sodipodi:type="inkscape:persp3d"
       inkscape:vp_x="0 : 526.18109 : 1"
       inkscape:vp_y="0 : 1000 : 0"
       inkscape:vp_z="744.09448 : 526.18109 : 1"
       inkscape:persp3d-origin="372.04724 : 350.78739 : 1"
       id="perspective3410" />
  </defs>
  <sodipodi:namedview
     id="base"
     pagecolor="#ffffff"
     bordercolor="#666666"
     borderopacity="1.0"
     inkscape:pageopacity="0.0"
     inkscape:pageshadow="2"
     inkscape:zoom="0.1767767"
     inkscape:cx="1152.0706"
     inkscape:cy="538.93992"
     inkscape:document-units="px"
     inkscape:current-layer="layer1"
     showgrid="false"
     inkscape:window-width="1280"
     inkscape:window-height="1002"
     inkscape:window-x="1592"
     inkscape:window-y="-8"
     fit-margin-top="0"
     fit-margin-left="0"
     fit-margin-right="0"
     fit-margin-bottom="0"
     inkscape:window-maximized="1" />
  <metadata
     id="metadata3407">
    <rdf:RDF>
      <cc:Work
         rdf:about="">
        <dc:format>image/svg+xml</dc:format>
        <dc:type
           rdf:resource="http://purl.org/dc/dcmitype/StillImage" />
        <dc:title />
      </cc:Work>
    </rdf:RDF>
  </metadata>
  <g
     inkscape:label="Calque 1"
     inkscape:groupmode="layer"
     id="layer1"
     transform="translate(675.42849,190.49496)">
    <g
       id="g3050"
       transform="matrix(39.032484,0,0,38.962899,-13257.037,-15545.998)">
      <g
         id="g897"
         transform="matrix(1.25,0,0,-1.25,-403.3417,1193.2644)">
        <g
           clip-path="url(#clipPath901)"
           id="g899">
          <g
             style="fill:#01a769;fill-opacity:1"
             id="g905">
            <g
               style="fill:#01a769;fill-opacity:1"
               clip-path="url(#clipPath909)"
               id="g907">
              <path
                 id="path913"
                 style="fill:#01a769;fill-opacity:1;fill-rule:nonzero;stroke:none"
                 d="m 584.671,626.509 c 0,0 -0.465,0.072 -0.5,-0.358 0,0 -0.143,-0.107 -0.072,-0.786 0,0 -0.501,-0.644 -0.393,-0.894 l 0.25,0.214 c 0,0 0.072,0.358 0.143,0.215 0,0 0.501,0.786 0.501,0.572 0,0 0.143,-0.072 0.322,-0.072 0,0 0.071,0.036 0.035,-0.357 0,0 0.131,-0.06 0.012,-0.203 0,0 -0.024,-0.107 -0.155,0.048 0,0 0.012,-0.453 0.191,-0.477 0,0 -0.31,-0.477 -0.489,-0.513 l 0.048,-0.047 -0.036,-0.048 -0.012,-0.06 -0.036,-0.047 0.012,-0.108 -0.071,-0.024 -0.107,-0.071 0.071,-0.048 c 0,0 0.095,-0.512 0,-0.56 l 0.024,-0.036 -0.036,-0.131 0.096,-0.012 0.035,0.012 c 0,0 0.12,-0.215 0.036,-0.262 l 0.084,-0.024 c 0,0 0.059,-0.072 0.047,-0.119 l 0.096,-0.06 c 0,0 0.071,0.131 0.095,0.191 0,0 0.131,0.119 0.131,0.048 0,0 0.155,0.202 0.215,0.19 l 0.226,0.334 0.06,0 -0.048,-0.179 0.072,-0.047 -0.179,-0.418 0.036,-0.047 0.202,0.119 0.06,-0.012 -0.119,-0.167 c 0,0 0.19,0.179 0.238,0.143 0.048,-0.036 0.072,-0.012 0.072,-0.012 l -0.072,-0.095 c 0,0 0.966,0.417 1.121,0.369 0,0 1.108,0.239 1.144,0.298 0.036,0.06 -0.012,-0.035 -0.012,-0.035 l 0.632,0.25 -0.095,-0.179 0.178,0.012 -0.19,-0.131 c 0,0 0.321,-0.095 0.286,-0.167 l 1.394,0.25 0,-0.202 0.048,0 -0.048,-0.096 0.036,-0.059 c 0,0 -0.286,-0.775 -0.262,-1.025 l 0.095,-0.179 0.048,-0.131 0.119,-0.024 0.072,-0.119 c 0,0 0.298,-0.072 0.262,-0.143 0,0 0.203,-0.227 0.179,-0.275 0,0 0.322,-0.286 0.262,-0.369 0,0 1.061,0.095 1.121,-0.06 0,0 0.763,0.298 0.882,0.31 0.119,0.012 0.226,0.048 0.226,0.048 l 0.024,0.059 0.215,-0.023 0.095,0.023 0.06,0.132 0.262,0.071 0,-0.06 0.048,0.06 0.035,0 0.036,-0.083 0.25,0.143 c 0,0 0.942,0.298 0.954,0.465 0.012,0.167 0.131,0.131 0.131,0.131 l 0.155,0.095 0.119,0.119 0.06,0.084 0.119,0 0.608,0.489 c 0,0 0.394,0.488 0.453,0.488 0.06,0 0.429,0.37 0.429,0.37 0,0 0.251,0.381 0.31,0.393 0.06,0.012 0.716,0.394 0.716,0.394 0,0 0.19,0.298 0.286,0.345 0.095,0.048 0.238,0.096 0.238,0.096 l 0.119,0.119 c 0,0 1.026,0.906 1.204,1.025 0.179,0.119 2.17,1.347 2.194,1.431 0.023,0.083 1.359,0.941 1.418,0.941 0.06,0 0.668,0.513 0.68,0.573 0.012,0.059 1.073,0.631 1.168,0.655 0.095,0.024 0.441,0.203 0.441,0.203 0,0 0.274,0.274 0.334,0.334 0.059,0.059 0.572,0.477 0.572,0.477 l 0,-0.144 0.084,-0.011 0.047,0.011 -0.059,0.06 0.119,0.095 0.226,-0.023 0.084,0.131 0.095,0.107 0.048,0 0.071,0.072 0.048,0.083 0.119,-0.012 0.048,0.048 0.036,0.059 0.119,0 0.191,0.203 0.143,-0.012 0.047,0.048 0.024,0.095 0.167,0.048 0.096,-0.024 0.25,0.036 0.024,0.095 0.071,0.024 0.036,0.012 0.048,0.107 0.059,-0.012 0.06,0.072 0.059,0.083 0.036,-0.083 0.108,-0.024 0.023,0.083 0.143,0.024 0.084,0.072 0.059,-0.024 0.036,0.06 0.048,0.035 0.167,0.036 0.262,0.072 0.06,-0.072 0.119,0.155 0.059,0.012 0.06,0.107 0.048,-0.131 0.25,-0.036 0.084,0.12 0.166,0.047 0.132,0.131 0.166,0.036 0.048,0.084 0.203,0.071 -0.024,-0.191 0.131,0.024 0.048,0.143 0.083,0.012 0.048,-0.155 0.227,0.012 0.143,-0.012 0.071,0.107 0.083,0.132 0.108,-0.048 0.178,0.072 0.239,0.035 0.131,-0.155 0.095,0.131 0.066,-0.086 0.054,0.045 c 0,0 0.635,0.035 0.733,0.026 0.098,-0.008 0.196,-0.053 0.196,-0.053 l 0.179,0.036 0.045,0.044 c 0,0 0.036,-0.018 0.063,-0.018 0.027,0 0.393,0 0.545,-0.009 0.152,-0.008 0.349,0 0.349,0 l 0.178,0.009 c 0,0 -0.026,-0.009 0.108,0.018 0.134,0.027 0.259,-0.027 0.259,-0.027 0,0 0.018,-0.035 0.063,0 0.044,0.036 0.062,0.036 0.062,0.036 l 0.152,-0.044 0.224,0.026 0.071,0.009 0.036,-0.098 0.179,0.036 0.116,-0.099 0.447,0.018 c 0,0 0.626,-0.089 0.706,-0.143 0.081,-0.053 -0.026,0 -0.026,0 0,0 -0.108,0.116 -0.626,0.206 -0.519,0.089 -0.17,0.062 -0.277,0.036 0,0 -0.206,0.009 -0.233,0.026 0,0 -0.375,0.018 0.331,0.144 l 0.322,-0.045 0.062,0.027 0.126,-0.054 0.035,-0.018 0.143,-0.027 0.099,-0.018 0.044,-0.009 c 0,0 0.099,0 0.117,-0.026 0.018,-0.027 0.035,-0.081 0.035,-0.081 l 0.054,0.009 0.107,-0.009 c 0,0 0.671,-0.143 0.698,-0.179 l -0.018,0.117 -0.054,-0.018 -0.116,0.026 -0.107,0.072 -0.143,-0.009 -0.018,0.045 -0.054,0 -0.071,0.071 -0.072,-0.009 -0.063,0.054 -0.062,0.054 -0.215,0.009 0,0.062 -0.062,-0.018 -0.009,0.081 -0.081,-0.027 -0.134,0.027 -0.223,0.08 -0.072,0.081 -0.179,0 -0.259,0.027 0.018,0.044 -0.116,0.027 -0.018,0.036 -0.519,0.027 -0.205,0.116 -0.322,-0.036 -0.09,0.045 -0.071,0.009 -0.143,0 -0.197,-0.018 -0.071,0.152 -0.188,-0.018 -0.394,0.036 -0.062,-0.063 -0.036,-0.053 -0.161,-0.018 -0.107,0.044 -0.045,-0.044 -0.17,0.009 -0.053,0.017 -0.009,0.045 -0.027,0.045 -0.107,0 -0.143,-0.009 -0.215,0.036 0.197,0.125 0.071,0.116 0.108,-0.027 0.035,-0.035 0.134,-0.054 0.564,0.009 -0.027,0.089 0.062,0 0.018,-0.071 0.295,-0.036 0.09,0.018 0.044,0 0.126,0 0.161,-0.054 -0.036,-0.062 0.08,-0.018 0.161,0.018 0.116,0 0.447,-0.045 0.179,-0.072 0.134,-0.035 0.188,-0.009 0.107,0.009 0.063,-0.018 0.045,-0.009 0.214,-0.027 0.17,0.018 0.018,-0.107 0.188,-0.018 0.214,0.044 c 0,0 0.859,-0.286 1.055,-0.339 l 0.081,0.134 0.161,0.009 -0.823,0.384 0.063,0.089 -0.206,0.108 0.125,0.134 -0.268,0.036 0.036,0.089 -0.116,0.027 -0.09,0.036 0.143,0.071 -0.42,0.027 0.045,0.116 -0.322,0.018 -0.009,0.098 0.107,0.081 0.054,0.125 -0.34,-0.036 0.036,0.125 0.206,0.099 0.017,0.098 -0.134,-0.071 -0.161,-0.081 -0.348,0 -0.045,0.116 -0.107,0 -0.269,0.036 0,0.107 0.09,0.054 0.036,0.098 -0.412,0.027 -0.009,0.063 -0.116,-0.009 0.063,0.08 -0.17,0 -0.322,0.009 -0.018,0.099 -0.277,0.035 0.072,0.117 0.178,0.062 0.009,0.081 -0.545,0.009 0.107,0.17 -0.098,0.035 0.545,-0.044 -0.018,-0.09 0.242,0.206 0.009,-0.098 0.152,-0.027 -0.036,-0.036 0.116,0.018 -0.045,-0.099 0.519,-0.017 0,-0.135 0.107,-0.071 -0.009,-0.161 0.161,-0.045 0.099,0.403 0.08,-0.09 0.188,-0.071 -0.009,-0.099 0.179,-0.009 -0.045,-0.125 -0.143,-0.107 0.116,-0.054 0.259,0.269 0.215,0.017 -0.045,-0.152 0.179,0 0.009,-0.134 0.724,-0.009 -0.009,-0.089 0.295,-0.027 -0.017,-0.143 0.232,-0.018 0.054,-0.089 0.393,-0.188 -0.134,0.268 -0.063,0.108 -0.053,-0.027 -0.134,0.179 -0.385,0.053 -0.018,0.072 -0.134,0.018 -0.036,0.134 -0.169,0.009 0.02,0.029 -0.137,0.105 -0.009,0.053 -0.268,0 0.045,0.057 c 0,0 -0.206,0.086 -0.277,0.086 -0.072,0 0.014,0.045 0.014,0.045 l -0.354,0.099 -0.063,0.116 -0.268,0.027 0.113,0.068 -0.247,0.066 -0.071,0.044 -0.036,0.027 0.009,0.054 -0.277,0.036 0.017,0.116 -0.071,0.018 0.045,0.116 -0.242,0.009 -0.206,0.134 -0.616,0.018 0.035,0.08 -0.125,0.045 -0.581,0.027 0.018,0.143 -0.617,-0.009 0.036,0.08 -0.76,0.072 -0.116,0.116 -2.656,0 1.207,0.206 0.465,0.036 0.188,0.017 0.349,-0.08 c 0,0 -0.009,0.098 0.018,0.134 0.026,0.036 0.008,0.259 0.008,0.259 0,0 -0.286,-0.071 -0.277,0.018 l -0.313,-0.152 -0.42,-0.08 -0.742,0.08 -0.134,0.161 -0.197,-0.116 -0.071,-0.17 -0.117,0.027 -0.008,0.232 -0.215,-0.116 -0.17,-0.053 c 0,0 -0.688,-0.018 -1.01,-0.09 0,0 -1.377,-0.143 -1.726,-0.277 0,0 -2.905,-0.992 -3.88,-1.591 0,0 -4.497,-2.522 -5.132,-2.888 0,0 -1.761,-1.735 -1.922,-0.939 0,0 0.036,0.17 0.196,0.25 l -0.152,-0.018 c 0,0 0.063,0.134 0.144,0.152 l -0.215,-0.053 c 0,0 0.134,0.143 0.161,0.143 l -0.09,-0.027 c 0,0 0.027,0.366 0.09,0.393 l 0.018,0.072 c 0,0 -0.17,0.018 -0.179,-0.045 0,0 0.036,0.331 0.188,0.385 0,0 -0.09,0.205 0.035,0.313 0,0 -0.196,-0.188 -0.25,-0.188 0,0 -0.268,-0.063 -0.17,0.053 0,0 -0.277,-0.214 -0.152,0.063 0,0 -0.393,-0.25 -0.304,0.036 0,0 -2.566,-2.128 -2.557,-1.717 0,0 -1.475,-1.779 -1.305,-0.912 0,0 -0.617,-0.313 -0.438,0.036 0,0 -0.34,-0.385 -0.268,0.125 0,0 -0.081,0.107 -0.018,0.304 0,0 -0.483,-0.492 -0.385,-0.143 0,0 -0.25,0 -0.152,0.152 0,0 -0.259,-0.241 -0.295,-0.08 0,0 -0.196,0.232 0.76,1.224 0,0 -1.225,-0.795 -1.18,-0.456 0,0 -0.036,0.117 0.089,0.278 0,0 -1.35,-1.136 -1.6,-1.359 0,0 -2.19,-2.03 -2.503,-2.388 -0.313,-0.357 -0.331,-0.384 -0.331,-0.384 0,0 -0.876,-0.957 -0.966,-1.198"
                 inkscape:connector-curvature="0" />
            </g>
          </g>
          <path
             id="path915"
             style="fill:#01a769;fill-opacity:1;fill-rule:nonzero;stroke:none"
             d="m 609.896,624.006 1.049,0 -0.024,-0.12 0.978,-0.071 0.023,0.191 0.573,-0.024 0,-0.096 0.5,-0.071 0.048,-0.096 0.119,0.024 0.096,-0.119 0.333,0.048 -0.023,0.167 c 0,0 -0.239,0.071 -0.358,0.071 -0.119,0 0.024,0.096 0.024,0.096 l -0.406,0.023 -0.047,0.12 -0.215,0.023 -0.143,0.048 0.048,0.072 -0.406,0.047 c -0.047,0.263 0.334,0.263 0.334,0.263 -0.024,0.238 0.477,0.262 0.477,0.262 0.072,0.238 0.596,0 0.596,0 0.119,-0.024 0.262,0.095 0.262,0.095 -0.19,0.024 -0.143,0.191 -0.143,0.191 0,0.119 0.763,0 0.763,0 -0.191,0.143 0.072,0.167 0.072,0.167 0.214,0.024 0.286,0.214 0.286,0.214 -0.119,-0.047 -0.191,0.215 -0.191,0.215 0,0.119 0.453,0 0.453,0 0.096,0.167 -0.667,0.525 -0.667,0.525 -0.191,-0.024 -0.406,0.333 -0.406,0.333 -1.168,1.121 -2.312,0.93 -2.312,0.93 -0.215,-0.143 -0.644,-0.071 -0.644,-0.071 -3.529,-0.263 -5.674,-1.622 -5.674,-1.622 -0.024,-0.167 -1.312,-0.548 -1.312,-0.548 -0.167,0 -0.262,-0.262 -0.262,-0.262 -0.095,0 -0.286,-0.429 -0.286,-0.429 -0.191,-0.31 0.024,-0.31 0.024,-0.31 0,0 0.047,0.071 0.071,-0.024 0.024,-0.096 -0.047,-0.429 -0.047,-0.429 -0.215,-0.12 0.166,-0.12 0.166,-0.12 -0.143,-0.19 1.336,-0.143 1.336,-0.143 -0.096,-0.166 0.286,-0.19 0.286,-0.19 l 0.93,0.024 c 0,0 0.605,0.122 0.837,0.122 0,0 0.179,0.062 0.206,0.044 0,0 0.116,0.072 0.161,0.036 0,0 0.259,0.036 0.313,0.009 l 0.259,0.009 -0.036,0.072 c 0,0 -0.438,0.035 -0.456,0.009 0,0 -0.161,-0.063 -0.206,-0.054 0,0 -0.178,-0.054 -0.214,-0.045 l -0.125,0 -0.09,-0.009 c 0,0 -0.331,-0.027 -0.062,0.099 l -0.081,0.071 c 0,0 0.143,0.367 0.34,0.322 0.197,-0.045 -0.027,0.009 -0.027,0.009 0,0 0.161,-0.152 0.09,-0.179 l 0.08,0.027 -0.188,-0.125 c 0,0 0.394,0.107 0.447,0.098 0,0 0.26,0.17 0.331,0.134 0,0 0.125,-0.036 0.188,-0.009 0,0 0.152,0.125 0.259,0.125 0,0 0.099,-0.062 0.045,-0.098 0,0 0.179,0.134 0.232,0.125 0,0 0.546,0.072 0.564,0.161 0,0 0.116,0.152 0.187,0.125 0,0 0.036,-0.089 -0.027,-0.17 0,0 0.242,-0.026 0.206,-0.08 l -0.018,-0.045 c 0,0 0.358,0.072 0.394,0.018 0,0 -0.126,-0.107 -0.295,-0.161 0,0 -0.376,0.009 -0.403,-0.035 0,0 -0.17,-0.009 -0.223,-0.054 0,0 -0.116,-0.134 -0.197,-0.09 -0.08,0.045 -0.027,-0.017 -0.027,-0.017 l -0.223,0 c 0,0 -0.054,-0.108 0.089,-0.099 0,0 0.438,0.17 0.528,0.125 0,0 0.053,0.126 0.366,0.108 0.313,-0.018 -0.027,-0.009 -0.027,-0.009 l 0.117,0.071 0.134,-0.044 0.271,0 z"
             inkscape:connector-curvature="0" />
          <path
             id="path917"
             style="fill:#ffffff;fill-opacity:1;fill-rule:nonzero;stroke:none"
             d="m 609.038,624.626 -0.167,-0.072 0.071,-0.048 0.096,0.12 z"
             inkscape:connector-curvature="0" />
          <path
             id="path919"
             style="fill:#ffffff;fill-opacity:1;fill-rule:nonzero;stroke:none"
             d="m 607.309,624.31 0.224,0 0.107,0 -0.054,-0.072 0.009,-0.045 -0.241,-0.026 0.009,0.08 -0.188,0.009 0.134,0.054 z"
             inkscape:connector-curvature="0" />
          <path
             id="path921"
             style="fill:#ffffff;fill-opacity:1;fill-rule:nonzero;stroke:none"
             d="m 605.002,630.139 c 0,0 -0.071,-0.25 -0.286,-0.286 0,0 -0.062,-0.134 0.251,-0.125 0,0 0.161,0.044 0.268,0.143 0,0 -0.188,-0.251 -0.259,-0.277 0,0 0.357,0.035 0.464,0.214 0.108,0.179 -0.026,-0.018 -0.026,-0.018 0,0 0.402,0.349 0.599,0.34 0,0 -0.17,0.107 0.429,0.34 0.053,0.035 0.84,0.366 0.939,0.581 l -0.027,0.098 0.125,0.152 0.393,0.116 0.233,0.215 c 0,0 -0.018,0.045 0.018,0.054 0.035,0.009 0.08,0.044 0.08,0.044 0,0 0.081,0.009 0.099,0.09 0.017,0.08 0.053,0.044 0.053,0.044 l 0.018,-0.107 c 0,0 0.17,-0.071 0.188,-0.036 l -0.161,-0.098 -0.072,-0.063 -0.036,-0.071 c 0,0 0.197,-0.063 0.26,0.116 l 0.071,0.125 0.045,0.009 0,-0.125 c 0,0 0.152,0.027 0.143,0.134 l -0.089,0.054 -0.009,0.054 0.125,0.017 0.08,0.036 0.063,0.116 0.027,0.143 -0.206,-0.009 c 0,0 -0.518,-0.25 -0.653,-0.321 0,0 -0.572,-0.242 -0.634,-0.313 -0.036,-0.027 -0.59,-0.206 -0.635,-0.251 0,0 -0.599,-0.384 -0.787,-0.429 -0.036,-0.018 -0.608,-0.34 -0.67,-0.456 0,0 -0.358,-0.259 -0.421,-0.25"
             inkscape:connector-curvature="0" />
          <path
             id="path923"
             style="fill:#ffffff;fill-opacity:1;fill-rule:nonzero;stroke:none"
             d="m 608.445,632.374 c -0.099,-0.063 -0.215,-0.25 -0.179,-0.223 0.036,0.026 0.241,0.107 0.241,0.107 l -0.08,-0.134 0.375,0.304 -0.259,-0.108 -0.027,0.126 -0.071,-0.072 z"
             inkscape:connector-curvature="0" />
          <path
             id="path925"
             style="fill:#ffffff;fill-opacity:1;fill-rule:nonzero;stroke:none"
             d="m 610.107,632.428 -0.259,-0.099 0.036,-0.107 0.188,0.098 0.035,0.108 z"
             inkscape:connector-curvature="0" />
          <path
             id="path927"
             style="fill:#ffffff;fill-opacity:1;fill-rule:nonzero;stroke:none"
             d="m 611.905,632.759 c -0.063,-0.09 -0.17,-0.251 -0.134,-0.242 0.035,0.009 0.894,0.197 0.894,0.197 l -0.027,0.071 -0.733,-0.026 z"
             inkscape:connector-curvature="0" />
          <path
             id="path929"
             style="fill:#ffffff;fill-opacity:1;fill-rule:nonzero;stroke:none"
             d="m 612.557,633.331 0,-0.152 0.474,0.053 c 0,0 0.054,0.063 0.027,0.072 -0.027,0.009 -0.501,0.027 -0.501,0.027"
             inkscape:connector-curvature="0" />
          <path
             id="path931"
             style="fill:#ffffff;fill-opacity:1;fill-rule:nonzero;stroke:none"
             d="m 614.006,632.893 c -0.045,-0.018 -0.197,-0.063 -0.197,-0.063 l 0.062,-0.089 0.296,0.053 0,0.117 -0.161,-0.018 z"
             inkscape:connector-curvature="0" />
          <path
             id="path933"
             style="fill:#ffffff;fill-opacity:1;fill-rule:nonzero;stroke:none"
             d="m 616.491,634.207 -0.027,0.08 -0.536,-0.089 0.393,-0.072 0.17,0.081 z"
             inkscape:connector-curvature="0" />
          <path
             id="path935"
             style="fill:#ffffff;fill-opacity:1;fill-rule:nonzero;stroke:none"
             d="m 613.04,635.521 0.322,0.09 0,-0.027 -0.259,-0.143 -0.063,0.08 z"
             inkscape:connector-curvature="0" />
          <path
             id="path937"
             style="fill:#ffffff;fill-opacity:1;fill-rule:nonzero;stroke:none"
             d="m 609.875,637.157 -0.045,-0.125 -0.241,-0.08 c 0,0 0.018,0.107 0.045,0.107 0.026,0 0.241,0.098 0.241,0.098"
             inkscape:connector-curvature="0" />
          <path
             id="path939"
             style="fill:#ffffff;fill-opacity:1;fill-rule:nonzero;stroke:none"
             d="m 608.641,637.041 0.081,-0.036 -0.233,-0.268 -0.053,0.045 0.205,0.259 z"
             inkscape:connector-curvature="0" />
          <path
             id="path941"
             style="fill:#226cab;fill-opacity:1;fill-rule:nonzero;stroke:none"
             d="m 609.687,627.85 -0.006,2.772 0.453,0.25 0,-3.058"
             inkscape:connector-curvature="0" />
          <path
             id="path943"
             style="fill:#226cab;fill-opacity:1;fill-rule:nonzero;stroke:none"
             d="m 609.669,623.559 0,-2.909 0.453,0 0,2.998"
             inkscape:connector-curvature="0" />
          <path
             id="path945"
             style="fill:#226cab;fill-opacity:1;fill-rule:nonzero;stroke:none"
             d="m 608.501,627.635 0,2.558 0.453,0.196 0,-2.664"
             inkscape:connector-curvature="0" />
          <path
             id="path947"
             style="fill:#226cab;fill-opacity:1;fill-rule:nonzero;stroke:none"
             d="m 608.501,623.398 0,-2.742 0.453,0 0,2.777"
             inkscape:connector-curvature="0" />
          <path
             id="path949"
             style="fill:#226cab;fill-opacity:1;fill-rule:nonzero;stroke:none"
             d="m 607.357,623.255 0,-2.599 0.453,0 0,2.634"
             inkscape:connector-curvature="0" />
          <path
             id="path951"
             style="fill:#226cab;fill-opacity:1;fill-rule:nonzero;stroke:none"
             d="m 607.81,627.367 0,2.486 -0.453,-0.286 0,-2.289"
             inkscape:connector-curvature="0" />
          <path
             id="path953"
             style="fill:#226cab;fill-opacity:1;fill-rule:nonzero;stroke:none"
             d="m 606.633,620.65 -0.454,0 -0.014,2.551 0.465,-0.036"
             inkscape:connector-curvature="0" />
          <path
             id="path955"
             style="fill:#226cab;fill-opacity:1;fill-rule:nonzero;stroke:none"
             d="m 606.179,628.995 0,-2.236 0.451,0.215 -0.018,2.164 -0.433,-0.143 z"
             inkscape:connector-curvature="0" />
          <path
             id="path957"
             style="fill:#226cab;fill-opacity:1;fill-rule:nonzero;stroke:none"
             d="m 604.949,623.201 0.012,-2.551 0.453,0 0,2.497"
             inkscape:connector-curvature="0" />
          <path
             id="path959"
             style="fill:#226cab;fill-opacity:1;fill-rule:nonzero;stroke:none"
             d="m 603.801,623.308 0,-2.649 0.453,0 -0.003,2.56"
             inkscape:connector-curvature="0" />
          <path
             id="path961"
             style="fill:#226cab;fill-opacity:1;fill-rule:nonzero;stroke:none"
             d="m 603.801,625.74 0,1.699 0,-1.699 0.468,0.125 -0.018,1.967 -0.45,-0.393"
             inkscape:connector-curvature="0" />
          <path
             id="path963"
             style="fill:#226cab;fill-opacity:1;fill-rule:nonzero;stroke:none"
             d="m 602.621,626.724 0,-6.065 0.453,0 0,6.333"
             inkscape:connector-curvature="0" />
          <path
             id="path965"
             style="fill:#226cab;fill-opacity:1;fill-rule:nonzero;stroke:none"
             d="m 601.459,625.901 0,-5.242 0.453,0 0,5.617"
             inkscape:connector-curvature="0" />
          <path
             id="path967"
             style="fill:#226cab;fill-opacity:1;fill-rule:nonzero;stroke:none"
             d="m 600.279,624.918 0,-4.259 0.453,0 0,4.723"
             inkscape:connector-curvature="0" />
          <path
             id="path969"
             style="fill:#226cab;fill-opacity:1;fill-rule:nonzero;stroke:none"
             d="m 599.063,623.755 0,-3.096 0.453,0 0,3.633"
             inkscape:connector-curvature="0" />
          <path
             id="path971"
             style="fill:#226cab;fill-opacity:1;fill-rule:nonzero;stroke:none"
             d="m 597.918,622.879 0,-2.202 0.453,0 0,2.542"
             inkscape:connector-curvature="0" />
          <path
             id="path973"
             style="fill:#226cab;fill-opacity:1;fill-rule:nonzero;stroke:none"
             d="m 596.72,621.967 0,-1.308 0.453,0 0,1.54"
             inkscape:connector-curvature="0" />
          <path
             id="path975"
             style="fill:#226cab;fill-opacity:1;fill-rule:nonzero;stroke:none"
             d="m 595.594,621.288 0,-0.611 0.453,0 0,0.843"
             inkscape:connector-curvature="0" />
          <path
             id="path977"
             style="fill:#226cab;fill-opacity:1;fill-rule:nonzero;stroke:none"
             d="m 604.984,626.116 0.465,0.25 0,2.128 -0.465,-0.286 0.004,-2.021"
             inkscape:connector-curvature="0" />
          <path
             id="path979"
             style="fill:#226cab;fill-opacity:1;fill-rule:nonzero;stroke:none"
             d="m 588.689,618.579 0,-1.145 c 0,-0.317 0.095,-0.61 0.468,-0.61 0.374,0 0.469,0.293 0.469,0.61 l 0,1.145 0.242,0 0,-1.228 c 0,-0.427 -0.265,-0.754 -0.711,-0.754 -0.445,0 -0.71,0.327 -0.71,0.754 l 0,1.228 0.242,0 z"
             inkscape:connector-curvature="0" />
          <path
             id="path981"
             style="fill:#226cab;fill-opacity:1;fill-rule:nonzero;stroke:none"
             d="m 590.18,618.672 1.456,-1.527 0,1.434 0.242,0 0,-2.02 -1.456,1.526 0,-1.447 -0.242,0 0,2.034 z"
             inkscape:connector-curvature="0" />
          <path
             id="path983"
             style="fill:#226cab;fill-opacity:1;fill-rule:nonzero;stroke:none"
             d="m 592.458,616.638 -0.242,0 0,1.94 0.242,0 0,-1.94 z"
             inkscape:connector-curvature="0" />
          <path
             id="path985"
             style="fill:#226cab;fill-opacity:1;fill-rule:nonzero;stroke:none"
             d="m 593.462,617.143 0.577,1.436 0.265,0 -0.842,-2.043 -0.844,2.043 0.265,0 0.579,-1.436 z"
             inkscape:connector-curvature="0" />
          <path
             id="path987"
             style="fill:#226cab;fill-opacity:1;fill-rule:nonzero;stroke:none"
             d="m 594.469,618.579 1.042,0 0,-0.221 -0.8,0 0,-0.543 0.777,0 0,-0.222 -0.777,0 0,-0.733 0.8,0 0,-0.222 -1.042,0 0,1.941 z"
             inkscape:connector-curvature="0" />
          <path
             id="path989"
             style="fill:#226cab;fill-opacity:1;fill-rule:nonzero;stroke:none"
             d="m 596.052,617.66 0.078,0 c 0.247,0 0.514,0.046 0.514,0.355 0,0.304 -0.288,0.348 -0.527,0.348 l -0.065,0 0,-0.703 z m 0.965,-1.022 -0.293,0 -0.571,0.821 -0.101,0 0,-0.821 -0.242,0 0,1.941 0.294,0 c 0.172,0 0.358,-0.003 0.512,-0.09 0.162,-0.095 0.255,-0.278 0.255,-0.463 0,-0.278 -0.186,-0.51 -0.466,-0.543 l 0.612,-0.845 z"
             inkscape:connector-curvature="0" />
          <path
             id="path991"
             style="fill:#226cab;fill-opacity:1;fill-rule:nonzero;stroke:none"
             d="m 598.071,618.211 c -0.072,0.121 -0.165,0.183 -0.312,0.183 -0.154,0 -0.324,-0.106 -0.324,-0.276 0,-0.152 0.149,-0.232 0.27,-0.278 l 0.139,-0.054 c 0.276,-0.108 0.482,-0.26 0.482,-0.584 0,-0.353 -0.273,-0.605 -0.621,-0.605 -0.314,0 -0.558,0.232 -0.599,0.543 l 0.244,0.052 c -0.002,-0.214 0.167,-0.368 0.376,-0.368 0.208,0 0.357,0.175 0.357,0.378 0,0.209 -0.167,0.299 -0.334,0.368 l -0.134,0.057 c -0.221,0.095 -0.422,0.221 -0.422,0.491 0,0.314 0.278,0.502 0.571,0.502 0.217,0 0.394,-0.106 0.5,-0.293 l -0.193,-0.116 z"
             inkscape:connector-curvature="0" />
          <path
             id="path993"
             style="fill:#226cab;fill-opacity:1;fill-rule:nonzero;stroke:none"
             d="m 598.825,616.638 -0.242,0 0,1.94 0.242,0 0,-1.94 z"
             inkscape:connector-curvature="0" />
          <path
             id="path995"
             style="fill:#226cab;fill-opacity:1;fill-rule:nonzero;stroke:none"
             d="m 599.711,616.638 -0.242,0 0,1.72 -0.461,0 0,0.221 1.163,0 0,-0.221 -0.46,0 0,-1.72 z"
             inkscape:connector-curvature="0" />
          <path
             id="path997"
             style="fill:#226cab;fill-opacity:1;fill-rule:nonzero;stroke:none"
             d="m 600.362,618.579 1.042,0 0,-0.221 -0.8,0 0,-0.543 0.777,0 0,-0.222 -0.777,0 0,-0.733 0.8,0 0,-0.222 -1.042,0 0,1.941 z"
             inkscape:connector-curvature="0" />
          <path
             id="path999"
             style="fill:#226cab;fill-opacity:1;fill-rule:nonzero;stroke:none"
             d="m 602.668,616.86 0.085,0 c 0.494,0 0.922,0.185 0.922,0.749 0,0.566 -0.428,0.749 -0.922,0.749 l -0.085,0 0,-1.498 z m -0.241,1.719 0.401,0 c 0.594,0 1.089,-0.314 1.089,-0.96 0,-0.661 -0.484,-0.981 -1.097,-0.981 l -0.393,0 0,1.941 z"
             inkscape:connector-curvature="0" />
          <path
             id="path1001"
             style="fill:#226cab;fill-opacity:1;fill-rule:nonzero;stroke:none"
             d="m 604.457,618.579 -0.046,-0.844 -0.16,0 -0.046,0.844 0.252,0 z"
             inkscape:connector-curvature="0" />
          <path
             id="path1003"
             style="fill:#226cab;fill-opacity:1;fill-rule:nonzero;stroke:none"
             d="m 606.526,617.609 c 0,0.427 -0.319,0.785 -0.774,0.785 -0.456,0 -0.775,-0.358 -0.775,-0.785 0,-0.443 0.355,-0.785 0.775,-0.785 0.419,0 0.774,0.342 0.774,0.785 m 0.242,0 c 0,-0.577 -0.455,-1.012 -1.016,-1.012 -0.561,0 -1.017,0.435 -1.017,1.012 0,0.555 0.461,1.011 1.017,1.011 0.556,0 1.016,-0.456 1.016,-1.011"
             inkscape:connector-curvature="0" />
          <path
             id="path1005"
             style="fill:#226cab;fill-opacity:1;fill-rule:nonzero;stroke:none"
             d="m 607.245,617.66 0.077,0 c 0.248,0 0.515,0.046 0.515,0.355 0,0.304 -0.288,0.348 -0.527,0.348 l -0.065,0 0,-0.703 z m 0.965,-1.022 -0.293,0 -0.571,0.821 -0.101,0 0,-0.821 -0.242,0 0,1.941 0.294,0 c 0.172,0 0.358,-0.003 0.512,-0.09 0.162,-0.095 0.255,-0.278 0.255,-0.463 0,-0.278 -0.186,-0.51 -0.466,-0.543 l 0.612,-0.845 z"
             inkscape:connector-curvature="0" />
          <path
             id="path1007"
             style="fill:#226cab;fill-opacity:1;fill-rule:nonzero;stroke:none"
             d="m 608.644,616.86 0.589,0 0,-0.222 -0.832,0 0,1.941 0.243,0 0,-1.719 z"
             inkscape:connector-curvature="0" />
          <path
             id="path1009"
             style="fill:#226cab;fill-opacity:1;fill-rule:nonzero;stroke:none"
             d="m 609.392,618.579 1.043,0 0,-0.221 -0.801,0 0,-0.543 0.777,0 0,-0.222 -0.777,0 0,-0.733 0.801,0 0,-0.222 -1.043,0 0,1.941 z"
             inkscape:connector-curvature="0" />
          <path
             id="path1011"
             style="fill:#226cab;fill-opacity:1;fill-rule:nonzero;stroke:none"
             d="m 611.454,618.131 -0.344,-0.785 0.689,0 -0.345,0.785 z m -0.445,-1.006 -0.221,-0.487 -0.26,0 0.926,2.023 0.927,-2.023 -0.26,0 -0.221,0.487 -0.891,0 z"
             inkscape:connector-curvature="0" />
          <path
             id="path1013"
             style="fill:#226cab;fill-opacity:1;fill-rule:nonzero;stroke:none"
             d="m 612.521,618.672 1.456,-1.527 0,1.434 0.242,0 0,-2.02 -1.456,1.526 0,-1.447 -0.242,0 0,2.034 z"
             inkscape:connector-curvature="0" />
          <path
             id="path1015"
             style="fill:#226cab;fill-opacity:1;fill-rule:nonzero;stroke:none"
             d="m 615.427,618.211 c -0.072,0.121 -0.165,0.183 -0.312,0.183 -0.154,0 -0.324,-0.106 -0.324,-0.276 0,-0.152 0.149,-0.232 0.271,-0.278 l 0.139,-0.054 c 0.275,-0.108 0.481,-0.26 0.481,-0.584 0,-0.353 -0.273,-0.605 -0.62,-0.605 -0.315,0 -0.559,0.232 -0.6,0.543 l 0.244,0.052 c -0.002,-0.214 0.168,-0.368 0.376,-0.368 0.208,0 0.358,0.175 0.358,0.378 0,0.209 -0.168,0.299 -0.335,0.368 l -0.134,0.057 c -0.221,0.095 -0.422,0.221 -0.422,0.491 0,0.314 0.278,0.502 0.572,0.502 0.216,0 0.393,-0.106 0.499,-0.293 l -0.193,-0.116 z"
             inkscape:connector-curvature="0" />
          <path
             id="path1017"
             style="fill:#01a769;fill-opacity:1;fill-rule:nonzero;stroke:none"
             d="m 613.043,637.381 0.072,-0.036 -0.012,-0.071 -0.12,0 0.06,0.107 z"
             inkscape:connector-curvature="0" />
          <path
             id="path1019"
             style="fill:#01a769;fill-opacity:1;fill-rule:nonzero;stroke:none"
             d="m 613.305,637.357 0.024,-0.036 -0.06,-0.059 0.024,0.059 0.012,0.036 z"
             inkscape:connector-curvature="0" />
          <path
             id="path1021"
             style="fill:#01a769;fill-opacity:1;fill-rule:nonzero;stroke:none"
             d="m 613.496,637.226 -0.06,-0.048 0.048,-0.012 0.012,0.06 z"
             inkscape:connector-curvature="0" />
          <path
             id="path1023"
             style="fill:#01a769;fill-opacity:1;fill-rule:nonzero;stroke:none"
             d="m 612.972,637.19 0.011,-0.071 -0.083,-0.024 0.036,0.071 0.036,0.024 z"
             inkscape:connector-curvature="0" />
          <path
             id="path1025"
             style="fill:#01a769;fill-opacity:1;fill-rule:nonzero;stroke:none"
             d="m 613.877,637.309 -0.119,-0.047 0.036,-0.012 0.048,0.047 0.202,-0.035 -0.19,-0.012 0.023,0.059 z"
             inkscape:connector-curvature="0" />
          <path
             id="path1027"
             style="fill:#01a769;fill-opacity:1;fill-rule:nonzero;stroke:none"
             d="m 614.45,637.083 -0.036,-0.06 0.036,-0.012 0,0.036 0.071,-0.083 0,-0.036 0.084,0 -0.084,0.036 -0.071,0.119 z"
             inkscape:connector-curvature="0" />
          <path
             id="path1029"
             style="fill:#01a769;fill-opacity:1;fill-rule:nonzero;stroke:none"
             d="m 614.068,637.119 0.06,-0.024 -0.06,0.024 z"
             inkscape:connector-curvature="0" />
        </g>
      </g>
    </g>
  </g>
</svg>
