<?xml version="1.0" encoding="UTF-8" standalone="no"?>
<!-- Created with Inkscape (http://www.inkscape.org/) -->

<svg
   xmlns:dc="http://purl.org/dc/elements/1.1/"
   xmlns:cc="http://creativecommons.org/ns#"
   xmlns:rdf="http://www.w3.org/1999/02/22-rdf-syntax-ns#"
   xmlns:svg="http://www.w3.org/2000/svg"
   xmlns="http://www.w3.org/2000/svg"
   xmlns:sodipodi="http://sodipodi.sourceforge.net/DTD/sodipodi-0.dtd"
   xmlns:inkscape="http://www.inkscape.org/namespaces/inkscape"
   version="1.1"
   width="636.43835"
   height="411.24899"
   id="svg2"
   xml:space="preserve"
   inkscape:version="0.48.4 r9939"
   sodipodi:docname="Logo_Polytech_Tours_Vertical.svg"><sodipodi:namedview
     pagecolor="#ffffff"
     bordercolor="#666666"
     borderopacity="1"
     objecttolerance="10"
     gridtolerance="10"
     guidetolerance="10"
     inkscape:pageopacity="0"
     inkscape:pageshadow="2"
     inkscape:window-width="1680"
     inkscape:window-height="1028"
     id="namedview3069"
     showgrid="false"
     inkscape:zoom="1.25"
     inkscape:cx="279.63659"
     inkscape:cy="149.78341"
     inkscape:window-x="-8"
     inkscape:window-y="-8"
     inkscape:window-maximized="1"
     inkscape:current-layer="svg2"
     fit-margin-top="10"
     fit-margin-left="10"
     fit-margin-right="10"
     fit-margin-bottom="10"
     showguides="true"
     inkscape:guide-bbox="true" /><metadata
     id="metadata8"><rdf:RDF><cc:Work
         rdf:about=""><dc:format>image/svg+xml</dc:format><dc:type
           rdf:resource="http://purl.org/dc/dcmitype/StillImage" /><dc:title /></cc:Work></rdf:RDF></metadata><defs
     id="defs6"><clipPath
       id="clipPath16"><path
         d="m 0,595.28 841.89,0 L 841.89,0 0,0 0,595.28 z"
         id="path18"
         inkscape:connector-curvature="0" /></clipPath></defs><g
     transform="matrix(1.25,0,0,-1.25,118.295,383.65725)"
     id="g14"
     clip-path=""><g
       transform="translate(143.7598,298.9258)"
       id="g148"><path
         d="m 0,0 c -54.168,-0.012 -99.307,-38.535 -109.545,-89.68 l 45.715,0 c 3.369,9.754 8.902,18.496 16.078,25.7 12.301,12.25 29.043,19.757 47.752,19.777 18.719,-0.02 35.463,-7.527 47.75,-19.777 12.254,-12.297 19.771,-29.047 19.777,-47.754 -0.006,-18.719 -7.523,-35.461 -19.777,-47.754 -12.287,-12.25 -29.031,-19.766 -47.75,-19.774 -18.709,0.008 -35.451,7.524 -47.752,19.774 -7.109,7.14 -12.609,15.781 -15.984,25.437 l -45.717,0.008 0,-0.008 0,-56.937 c 0,-48.035 41.564,-45.211 41.564,-45.211 l 0.03,35.707 c 18.806,-14.41 42.326,-22.965 67.859,-22.985 61.717,0.02 111.723,50.02 111.736,111.743 C 111.723,-50.008 61.717,-0.012 0,0"
         id="path150"
         style="fill:#00adef;fill-opacity:1;fill-rule:nonzero;stroke:none"
         inkscape:connector-curvature="0" /></g><g
       id="g3072"
       transform="translate(-387.2,-228.8)"><g
         id="g113"
         transform="translate(309.334,238.7656)"><path
           inkscape:connector-curvature="0"
           d="m 0,0 11.605,0 0.278,0 c 2.508,0 4.472,0.035 5.687,0.379 1.217,0.379 1.625,0.672 2.131,1.844 0.313,0.8 0.531,2.082 0.524,3.933 0.039,3.86 -0.51,5.664 -1.088,6.172 -0.465,0.578 -1.928,0.985 -5.086,0.953 L 0,13.281 0,0 z m -8.77,-23.711 0,42.906 0,1.789 25.067,0 c 4.746,0.047 8.226,-1.523 10.217,-4.296 1.982,-2.766 2.472,-6.247 2.484,-9.938 -0.012,-1.867 0.025,-5.312 -1.615,-8.531 -1.625,-3.266 -5.311,-6 -11.328,-5.918 l -16.055,0 0,-16.012 -8.77,0 z"
           id="path114"
           style="fill:#094270;fill-opacity:1;fill-rule:nonzero;stroke:none" /></g><g
         id="g116"
         transform="translate(377.877,252.3906)"><path
           style="fill:#094270;fill-opacity:1;fill-rule:nonzero;stroke:none"
           id="path118"
           d="m 0,0 c -3.766,0.008 -5.689,-0.516 -6.471,-1.344 -0.847,-0.758 -1.433,-2.664 -1.424,-6.562 l 0,-14.645 c 0,-3.926 0.747,-5.535 1.661,-6.238 0.906,-0.789 2.947,-1.164 6.234,-1.164 l 6.129,0 c 3.303,0 5.346,0.375 6.248,1.164 0.914,0.703 1.66,2.312 1.66,6.238 l 0,14.645 c 0.024,3.898 -0.58,5.804 -1.426,6.562 C 11.834,-0.516 9.9,0.008 6.152,0 L 0,0 M 6.164,7.699 C 11.998,7.625 16.195,6.797 19.076,4.121 21.947,1.406 22.809,-2.617 22.809,-7.906 l 0,-14.645 c 0.009,-5.043 -1.012,-8.996 -3.916,-11.629 -2.909,-2.586 -7.096,-3.476 -12.741,-3.484 l -6.152,0 c -5.65,0.008 -9.85,0.898 -12.748,3.484 -2.906,2.633 -3.93,6.586 -3.92,11.629 l 0,14.645 c 0.01,5.289 0.867,9.312 3.727,12.027 2.884,2.676 7.082,3.504 12.941,3.578 l 6.152,0"
           inkscape:connector-curvature="0" /></g><g
         id="g120"
         transform="translate(428.2656,215.0547)"><path
           style="fill:#094270;fill-opacity:1;fill-rule:nonzero;stroke:none"
           id="path122"
           d="m 0,0 0,44.695 8.781,0 0,-36.988 23.27,0 L 32.051,0 0,0 z"
           inkscape:connector-curvature="0" /></g><g
         id="g124"
         transform="translate(493.6836,215.0625)"><path
           style="fill:#094270;fill-opacity:1;fill-rule:nonzero;stroke:none"
           id="path126"
           d="m 0,0 0,18.375 -18.41,26.313 10.426,0 12.582,-17.903 12.59,17.903 10.601,0 L 8.777,18.367 8.777,0 0,0 z"
           inkscape:connector-curvature="0" /></g><g
         id="g128"
         transform="translate(555.1953,215.0625)"><path
           style="fill:#094270;fill-opacity:1;fill-rule:nonzero;stroke:none"
           id="path130"
           d="m 0,0 0,36.984 -14.809,0 0,7.704 38.375,0 0,-7.704 -14.796,0 0,-35.187 L 8.77,0 0,0 z"
           inkscape:connector-curvature="0" /></g><g
         id="g132"
         transform="translate(603.2852,215.0547)"><path
           style="fill:#094270;fill-opacity:1;fill-rule:nonzero;stroke:none"
           id="path134"
           d="m 0,0 0,44.695 32.961,0 0,-7.703 -24.184,0 0,-10.383 23.137,0 0,-7.418 -23.137,0 0,-11.484 24.184,0 L 32.961,0 0,0 z"
           inkscape:connector-curvature="0" /></g><g
         id="g136"
         transform="translate(678.2266,214.7266)"><path
           style="fill:#094270;fill-opacity:1;fill-rule:nonzero;stroke:none"
           id="path138"
           d="m 0,0 -0.027,0 c -4.493,0 -8.313,1.289 -10.996,3.891 -2.692,2.597 -4.063,6.386 -4.055,10.843 l 0,15.899 c -0.07,6.164 2.328,10.367 6.328,12.406 3.937,2.043 8.922,2.301 14.527,2.324 l 4.27,0 c 4.976,0 8.652,-0.957 11.105,-3.41 2.434,-2.484 3.176,-6 3.176,-10.234 l 0,-3.102 -8.765,0 0,1.793 0,1.156 c 0.015,2.782 -0.407,4.258 -1.032,4.872 -0.566,0.648 -2.004,1.226 -5.226,1.226 l -2.914,0 c -3.965,0 -6.918,-0.187 -8.844,-0.711 -1.934,-0.562 -2.684,-1.187 -3.254,-2.375 -0.367,-0.824 -0.602,-2.051 -0.598,-3.789 l 0,-11.289 c -0.004,-3.484 0.078,-6.191 0.532,-7.977 0.503,-1.804 1.05,-2.531 2.39,-3.156 0.922,-0.398 2.328,-0.656 4.348,-0.656 l 6.152,0 c 3.059,-0.008 5.246,0.156 6.563,0.559 1.343,0.441 1.695,0.808 2.093,1.66 0.243,0.601 0.395,1.543 0.387,2.883 l 0,5.078 8.785,0 0,-5.625 C 25.02,7.168 22.898,3.566 19.461,1.898 16.105,0.211 11.938,0.023 7.305,0 L 0,0"
           inkscape:connector-curvature="0" /></g><g
         id="g140"
         transform="translate(761.4453,215.0547)"><path
           style="fill:#094270;fill-opacity:1;fill-rule:nonzero;stroke:none"
           id="path142"
           d="m 0,0 0,18.906 -23.156,0 0,-18.906 -8.762,0 0,44.695 8.777,0 -0.015,-18.086 23.156,0 0,18.086 8.773,0 L 8.773,0 0,0 z"
           inkscape:connector-curvature="0" /></g><g
         id="g144"
         transform="translate(790.7617,258.6953)"><path
           style="fill:#094270;fill-opacity:1;fill-rule:nonzero;stroke:none"
           id="path146"
           d="m 0,0 c -0.266,-1.578 -1.477,-2.484 -2.879,-2.484 -2.047,0 -3.391,1.523 -3.391,3.5 0,2.023 1.262,3.531 3.364,3.531 1.441,0 2.629,-0.859 2.855,-2.453 l -1.234,0 c -0.153,0.738 -0.805,1.179 -1.621,1.179 -1.199,0 -1.844,-0.937 -1.844,-2.226 0,-1.238 0.727,-2.277 1.871,-2.277 0.867,0 1.504,0.472 1.594,1.23 L 0,0 z m -3.094,-3.656 c 2.434,0 4.438,1.961 4.438,4.633 0,2.699 -2.004,4.625 -4.438,4.625 -2.48,0 -4.453,-1.926 -4.453,-4.625 0,-2.672 1.973,-4.633 4.453,-4.633 m 0,10.523 c 3.192,0 6.047,-2.293 6.047,-5.89 0,-3.579 -2.855,-5.891 -6.047,-5.891 -3.203,0 -6.058,2.312 -6.058,5.891 0,3.597 2.855,5.89 6.058,5.89"
           inkscape:connector-curvature="0" /></g></g></g></svg>